0.00,0
0.01,0
0.02,0
0.03,0
0.04,0
0.05,0
0.06,0
0.07,0
0.08,0
0.09,0
0.10,0
0.11,0
0.12,0
0.13,0
0.14,0
0.15,0
0.16,0
0.17,0
0.18,0
0.19,0
0.20,0
0.21,0
0.22,0
0.23,0
0.24,0
0.25,0
0.26,0
0.27,0
0.28,0
0.29,0
0.30,0
0.31,0
0.32,0
0.33,0
0.34,0
0.35,0
0.36,0
0.37,0
0.38,0
0.39,0
0.40,0
0.41,0
0.42,0
0.43,0
0.44,0
0.45,0
0.46,0
0.47,0
0.48,0
0.49,0
0.50,0
0.51,0
0.52,0
0.53,0
0.54,0
0.55,0
0.56,0
0.57,0
0.58,0
0.59,0
0.60,0
0.61,0
0.62,0
0.63,0
0.64,0
0.65,0
0.66,0
0.67,0
0.68,0
0.69,0
0.70,0
0.71,0
0.72,0
0.73,0
0.74,0
0.75,0
0.76,0
0.77,0
0.78,0
0.79,0
0.80,0
0.81,0
0.82,0
0.83,0
0.84,0
0.85,0
0.86,0
0.87,0
0.88,0
0.89,0
0.90,0
0.91,0
0.92,0
0.93,0
0.94,0
0.95,0
0.96,0
0.97,0
0.98,0
0.99,0
1.00,0
1.01,0
1.02,0
1.03,0
1.04,0
1.05,0
1.06,0
1.07,0
1.08,0
1.09,0
1.10,0
1.11,0
1.12,0
1.13,0
1.14,0
1.15,0
1.16,0
1.17,0
1.18,0
1.19,0
1.20,0
1.21,0
1.22,0
1.23,0
1.24,0
1.25,0
1.26,0
1.27,0
1.28,0
1.29,0
1.30,0
1.31,0
1.32,0
1.33,0
1.34,0
1.35,0
1.36,0
1.37,0
1.38,0
1.39,0
1.40,0
1.41,0
1.42,0
1.43,0
1.44,0
1.45,0
1.46,0
1.47,0
1.48,0
1.49,0
1.50,0
1.51,0
1.52,0
1.53,0
1.54,0
1.55,0
1.56,0
1.57,0
1.58,0
1.59,0
1.60,0
1.61,0
1.62,0
1.63,0
1.64,0
1.65,0
1.66,0
1.67,0
1.68,0
1.69,0
1.70,0
1.71,0
1.72,0
1.73,0
1.74,0
1.75,0
1.76,0
1.77,0
1.78,0
1.79,0
1.80,0
1.81,0
1.82,0
1.83,0
1.84,0
1.85,0
1.86,0
1.87,0
1.88,0
1.89,0
1.90,0
1.91,0
1.92,0
1.93,0
1.94,0
1.95,0
1.96,0
1.97,0
1.98,0
1.99,0
2.00,0
2.01,0
2.02,0
2.03,0
2.04,0
2.05,0
2.06,0
2.07,0
2.08,0
2.09,0
2.10,0
2.11,0
2.12,0
2.13,0
2.14,0
2.15,0
2.16,0
2.17,0
2.18,0
2.19,0
2.20,0
2.21,0
2.22,0
2.23,0
2.24,0
2.25,0
2.26,0
2.27,0
2.28,0
2.29,0
2.30,0
2.31,0
2.32,0
2.33,0
2.34,0
2.35,0
2.36,0
2.37,0
2.38,0
2.39,0
2.40,0
2.41,0
2.42,0
2.43,0
2.44,0
2.45,0
2.46,0
2.47,0
2.48,0
2.49,0
2.50,0
2.51,0
2.52,0
2.53,0
2.54,0
2.55,0
2.56,0
2.57,0
2.58,0
2.59,0
2.60,0
2.61,0
2.62,0
2.63,0
2.64,0
2.65,0
2.66,0
2.67,0
2.68,0
2.69,0
2.70,0
2.71,0
2.72,0
2.73,0
2.74,0
2.75,0
2.76,0
2.77,0
2.78,0
2.79,0
2.80,0
2.81,0
2.82,0
2.83,0
2.84,0
2.85,0
2.86,0
2.87,0
2.88,0
2.89,0
2.90,0
2.91,0
2.92,0
2.93,0
2.94,0
2.95,0
2.96,0
2.97,0
2.98,0
2.99,0
3.00,0
3.01,0
3.02,0
3.03,0
3.04,0
3.05,0
3.06,0
3.07,0
3.08,0
3.09,0
3.10,0
3.11,0
3.12,0
3.13,0
3.14,0
3.15,0
3.16,0
3.17,0
3.18,0
3.19,0
3.20,0
3.21,0
3.22,0
3.23,0
3.24,0
3.25,0
3.26,0
3.27,0
3.28,0
3.29,0
3.30,0
3.31,0
3.32,0
3.33,0
3.34,0
3.35,0
3.36,0
3.37,0
3.38,0
3.39,0
3.40,0
3.41,0
3.42,0
3.43,0
3.44,0
3.45,0
3.46,0
3.47,0
3.48,0
3.49,0
3.50,0
3.51,0
3.52,0
3.53,0
3.54,0
3.55,0
3.56,0
3.57,0
3.58,0
3.59,0
3.60,0
3.61,0
3.62,0
3.63,0
3.64,0
3.65,0
3.66,0
3.67,0
3.68,0
3.69,0
3.70,0
3.71,0
3.72,0
3.73,0
3.74,0
3.75,0
3.76,0
3.77,0
3.78,0
3.79,0
3.80,0
3.81,0
3.82,0
3.83,0
3.84,0
3.85,0
3.86,0
3.87,0
3.88,0
3.89,0
3.90,0
3.91,0
3.92,0
3.93,0
3.94,0
3.95,0
3.96,0
3.97,0
3.98,0
3.99,0
4.00,0
4.01,0
4.02,0
4.03,0
4.04,0
4.05,0
4.06,0
4.07,0
4.08,0
4.09,0
4.10,0
4.11,0
4.12,0
4.13,0
4.14,0
4.15,0
4.16,0
4.17,0
4.18,0
4.19,0
4.20,0
4.21,0
4.22,0
4.23,0
4.24,0
4.25,0
4.26,0
4.27,0
4.28,0
4.29,0
4.30,0
4.31,0
4.32,0
4.33,0
4.34,0
4.35,0
4.36,0
4.37,0
4.38,0
4.39,0
4.40,0
4.41,0
4.42,0
4.43,0
4.44,0
4.45,0
4.46,0
4.47,0
4.48,0
4.49,0
4.50,0
4.51,0
4.52,0
4.53,0
4.54,0
4.55,0
4.56,0
4.57,0
4.58,0
4.59,0
4.60,0
4.61,0
4.62,0
4.63,0
4.64,0
4.65,0
4.66,0
4.67,0
4.68,0
4.69,0
4.70,0
4.71,0
4.72,0
4.73,0
4.74,0
4.75,0
4.76,0
4.77,0
4.78,0
4.79,0
4.80,0
4.81,0
4.82,0
4.83,0
4.84,0
4.85,0
4.86,0
4.87,0
4.88,0
4.89,0
4.90,0
4.91,0
4.92,0
4.93,0
4.94,0
4.95,0
4.96,0
4.97,0
4.98,0
4.99,0
5.00,0
5.01,0
5.02,0
5.03,0
5.04,0
5.05,0
5.06,0
5.07,0
5.08,0
5.09,0
5.10,0
5.11,0
5.12,0
5.13,0
5.14,0
5.15,0
5.16,0
5.17,0
5.18,0
5.19,0
5.20,0
5.21,0
5.22,0
5.23,0
5.24,0
5.25,0
5.26,0
5.27,0
5.28,0
5.29,0
5.30,0
5.31,0
5.32,0
5.33,0
5.34,0
5.35,0
5.36,0
5.37,0
5.38,0
5.39,0
5.40,0
5.41,0
5.42,0
5.43,0
5.44,0
5.45,0
5.46,0
5.47,0
5.48,0
5.49,0
5.50,0
5.51,0
5.52,0
5.53,0
5.54,0
5.55,0
5.56,0
5.57,0
5.58,0
5.59,0
5.60,0
5.61,0
5.62,0
5.63,0
5.64,0
5.65,0
5.66,0
5.67,0
5.68,0
5.69,0
5.70,0
5.71,0
5.72,0
5.73,0
5.74,0
5.75,0
5.76,0
5.77,0
5.78,0
5.79,0
5.80,0
5.81,0
5.82,0
5.83,0
5.84,0
5.85,0
5.86,0
5.87,0
5.88,0
5.89,0
5.90,0
5.91,0
5.92,0
5.93,0
5.94,0
5.95,0
5.96,0
5.97,0
5.98,0
5.99,0
6.00,0
6.01,0
6.02,0
6.03,0
6.04,0
6.05,0
6.06,0
6.07,0
6.08,0
6.09,0
6.10,0
6.11,0
6.12,0
6.13,0
6.14,0
6.15,0
6.16,0
6.17,0
6.18,0
6.19,0
6.20,0
6.21,0
6.22,0
6.23,0
6.24,0
6.25,0
6.26,0
6.27,0
6.28,0
6.29,0
6.30,0
6.31,0
6.32,0
6.33,0
6.34,0
6.35,0
6.36,0
6.37,0
6.38,0
6.39,0
6.40,0
6.41,0
6.42,0
6.43,0
6.44,0
6.45,0
6.46,0
6.47,0
6.48,0
6.49,0
6.50,0
6.51,0
6.52,0
6.53,0
6.54,0
6.55,0
6.56,0
6.57,0
6.58,0
6.59,0
6.60,0
6.61,0
6.62,0
6.63,0
6.64,0
6.65,0
6.66,0
6.67,0
6.68,0
6.69,0
6.70,0
6.71,0
6.72,0
6.73,0
6.74,0
6.75,0
6.76,0
6.77,0
6.78,0
6.79,0
6.80,0
6.81,0
6.82,0
6.83,0
6.84,0
6.85,0
6.86,0
6.87,0
6.88,0
6.89,0
6.90,0
6.91,0
6.92,0
6.93,0
6.94,0
6.95,0
6.96,0
6.97,0
6.98,0
6.99,0
7.00,0
7.01,0
7.02,0
7.03,0
7.04,0
7.05,0
7.06,0
7.07,0
7.08,0
7.09,0
7.10,0
7.11,0
7.12,0
7.13,0
7.14,0
7.15,0
7.16,0
7.17,0
7.18,0
7.19,0
7.20,0
7.21,0
7.22,0
7.23,0
7.24,0
7.25,0
7.26,0
7.27,0
7.28,0
7.29,0
7.30,0
7.31,0
7.32,0
7.33,0
7.34,0
7.35,0
7.36,0
7.37,0
7.38,0
7.39,0
7.40,0
7.41,0
7.42,0
7.43,0
7.44,0
7.45,0
7.46,0
7.47,0
7.48,0
7.49,0
7.50,0
7.51,0
7.52,0
7.53,0
7.54,0
7.55,0
7.56,0
7.57,0
7.58,0
7.59,0
7.60,0
7.61,0
7.62,0
7.63,0
7.64,0
7.65,0
7.66,0
7.67,0
7.68,0
7.69,0
7.70,0
7.71,0
7.72,0
7.73,0
7.74,0
7.75,0
7.76,0
7.77,0
7.78,0
7.79,0
7.80,0
7.81,0
7.82,0
7.83,0
7.84,0
7.85,0
7.86,0
7.87,0
7.88,0
7.89,0
7.90,0
7.91,0
7.92,0
7.93,0
7.94,0
7.95,0
7.96,0
7.97,0
7.98,0
7.99,0
8.00,0
8.01,0
8.02,0
8.03,0
8.04,0
8.05,0
8.06,0
8.07,0
8.08,0
8.09,0
8.10,0
8.11,0
8.12,0
8.13,0
8.14,0
8.15,0
8.16,0
8.17,0
8.18,0
8.19,0
8.20,0
8.21,0
8.22,0
8.23,0
8.24,0
8.25,0
8.26,0
8.27,0
8.28,0
8.29,0
8.30,0
8.31,0
8.32,0
8.33,0
8.34,0
8.35,0
8.36,0
8.37,0
8.38,0
8.39,0
8.40,0
8.41,0
8.42,0
8.43,0
8.44,0
8.45,0
8.46,0
8.47,0
8.48,0
8.49,0
8.50,0
8.51,0
8.52,0
8.53,0
8.54,0
8.55,0
8.56,0
8.57,0
8.58,0
8.59,0
8.60,0
8.61,0
8.62,0
8.63,0
8.64,0
8.65,0
8.66,0
8.67,0
8.68,0
8.69,0
8.70,0
8.71,0
8.72,0
8.73,0
8.74,0
8.75,0
8.76,0
8.77,0
8.78,0
8.79,0
8.80,0
8.81,0
8.82,0
8.83,0
8.84,0
8.85,0
8.86,0
8.87,0
8.88,0
8.89,0
8.90,0
8.91,0
8.92,0
8.93,0
8.94,0
8.95,0
8.96,0
8.97,0
8.98,0
8.99,0
9.00,0
9.01,0
9.02,0
9.03,0
9.04,0
9.05,0
9.06,0
9.07,0
9.08,0
9.09,0
9.10,0
9.11,0
9.12,0
9.13,0
9.14,0
9.15,0
9.16,0
9.17,0
9.18,0
9.19,0
9.20,0
9.21,0
9.22,0
9.23,0
9.24,0
9.25,0
9.26,0
9.27,0
9.28,0
9.29,0
9.30,0
9.31,0
9.32,0
9.33,0
9.34,0
9.35,0
9.36,0
9.37,0
9.38,0
9.39,0
9.40,0
9.41,0
9.42,0
9.43,0
9.44,0
9.45,0
9.46,0
9.47,0
9.48,0
9.49,0
9.50,0
9.51,0
9.52,0
9.53,0
9.54,0
9.55,0
9.56,0
9.57,0
9.58,0
9.59,0
9.60,0
9.61,0
9.62,0
9.63,0
9.64,0
9.65,0
9.66,0
9.67,0
9.68,0
9.69,0
9.70,0
9.71,0
9.72,0
9.73,0
9.74,0
9.75,0
9.76,0
9.77,0
9.78,0
9.79,0
9.80,0
9.81,0
9.82,0
9.83,0
9.84,0
9.85,0
9.86,0
9.87,0
9.88,0
9.89,0
9.90,0
9.91,2
9.92,7
9.93,13
9.94,21
9.95,29
9.96,37
9.97,43
9.98,48
9.99,51
10.00,53
10.01,53
10.02,53
10.03,53
10.04,54
10.05,58
10.06,65
10.07,76
10.08,91
10.09,115
10.10,149
10.11,194
10.12,240
10.13,286
10.14,337
10.15,395
10.16,450
10.17,505
10.18,560
10.19,608
10.20,647
10.21,682
10.22,721
10.23,760
10.24,792
10.25,819
10.26,843
10.27,870
10.28,900
10.29,929
10.30,952
10.31,968
10.32,980
10.33,992
10.34,1006
10.35,1025
10.36,1053
10.37,1091
10.38,1134
10.39,1175
10.40,1216
10.41,1263
10.42,1312
10.43,1356
10.44,1401
10.45,1454
10.46,1509
10.47,1564
10.48,1625
10.49,1690
10.50,1752
10.51,1822
10.52,1895
10.53,1966
10.54,2040
10.55,2107
10.56,2175
10.57,2243
10.58,2308
10.59,2373
10.60,2431
10.61,2481
10.62,2532
10.63,2584
10.64,2628
10.65,2667
10.66,2708
10.67,2749
10.68,2783
10.69,2810
10.70,2834
10.71,2863
10.72,2900
10.73,2944
10.74,2987
10.75,3030
10.76,3080
10.77,3133
10.78,3185
10.79,3240
10.80,3304
10.81,3371
10.82,3443
10.83,3517
10.84,3588
10.85,3666
10.86,3744
10.87,3823
10.88,3899
10.89,3973
10.90,4049
10.91,4120
10.92,4190
10.93,4254
10.94,4312
10.95,4370
10.96,4425
10.97,4470
10.98,4511
10.99,4550
11.00,4581
11.01,4600
11.02,4607
11.03,4607
11.04,4607
11.05,4607
11.06,4606
11.07,4603
11.08,4601
11.09,4601
11.10,4601
11.11,4600
11.12,4597
11.13,4589
11.14,4578
11.15,4565
11.16,4551
11.17,4538
11.18,4528
11.19,4523
11.20,4521
11.21,4521
11.22,4521
11.23,4520
11.24,4519
11.25,4516
11.26,4511
11.27,4507
11.28,4502
11.29,4498
11.30,4493
11.31,4488
11.32,4483
11.33,4477
11.34,4472
11.35,4465
11.36,4457
11.37,4446
11.38,4429
11.39,4406
11.40,4378
11.41,4351
11.42,4329
11.43,4312
11.44,4298
11.45,4283
11.46,4263
11.47,4236
11.48,4199
11.49,4156
11.50,4114
11.51,4071
11.52,4022
11.53,3969
11.54,3918
11.55,3864
11.56,3804
11.57,3744
11.58,3685
11.59,3623
11.60,3565
11.61,3510
11.62,3449
11.63,3390
11.64,3336
11.65,3282
11.66,3233
11.67,3194
11.68,3159
11.69,3123
11.70,3084
11.71,3051
11.72,3025
11.73,3005
11.74,2983
11.75,2955
11.76,2922
11.77,2889
11.78,2862
11.79,2840
11.80,2818
11.81,2790
11.82,2752
11.83,2704
11.84,2655
11.85,2606
11.86,2550
11.87,2495
11.88,2444
11.89,2390
11.90,2331
11.91,2276
11.92,2221
11.93,2164
11.94,2113
11.95,2065
11.96,2012
11.97,1958
11.98,1909
11.99,1862
12.00,1811
12.01,1763
12.02,1719
12.03,1671
12.04,1619
12.05,1570
12.06,1532
12.07,1497
12.08,1463
12.09,1436
12.10,1420
12.11,1413
12.12,1410
12.13,1406
12.14,1399
12.15,1388
12.16,1372
12.17,1350
12.18,1322
12.19,1287
12.20,1251
12.21,1222
12.22,1200
12.23,1180
12.24,1157
12.25,1128
12.26,1097
12.27,1069
12.28,1049
12.29,1035
12.30,1020
12.31,1000
12.32,971
12.33,935
12.34,895
12.35,863
12.36,839
12.37,819
12.38,795
12.39,762
12.40,723
12.41,687
12.42,655
12.43,624
12.44,588
12.45,546
12.46,505
12.47,470
12.48,438
12.49,399
12.50,358
12.51,319
12.52,285
12.53,252
12.54,216
12.55,176
12.56,139
12.57,105
12.58,69
12.59,25
12.60,-22
12.61,-62
12.62,-97
12.63,-131
12.64,-169
12.65,-207
12.66,-240
12.67,-271
12.68,-307
12.69,-349
12.70,-390
12.71,-421
12.72,-447
12.73,-473
12.74,-505
12.75,-543
12.76,-580
12.77,-613
12.78,-645
12.79,-685
12.80,-733
12.81,-783
12.82,-834
12.83,-897
12.84,-967
12.85,-1037
12.86,-1113
12.87,-1187
12.88,-1258
12.89,-1326
12.90,-1381
12.91,-1430
12.92,-1474
12.93,-1508
12.94,-1539
12.95,-1575
12.96,-1621
12.97,-1672
12.98,-1718
12.99,-1759
13.00,-1799
13.01,-1833
13.02,-1855
13.03,-1867
13.04,-1871
13.05,-1874
13.06,-1877
13.07,-1879
13.08,-1882
13.09,-1883
13.10,-1884
13.11,-1884
13.12,-1883
13.13,-1882
13.14,-1878
13.15,-1872
13.16,-1860
13.17,-1838
13.18,-1810
13.19,-1782
13.20,-1762
13.21,-1746
13.22,-1731
13.23,-1708
13.24,-1672
13.25,-1624
13.26,-1573
13.27,-1526
13.28,-1477
13.29,-1428
13.30,-1391
13.31,-1366
13.32,-1351
13.33,-1337
13.34,-1319
13.35,-1294
13.36,-1267
13.37,-1244
13.38,-1232
13.39,-1228
13.40,-1228
13.41,-1228
13.42,-1227
13.43,-1221
13.44,-1211
13.45,-1194
13.46,-1171
13.47,-1139
13.48,-1097
13.49,-1051
13.50,-1007
13.51,-964
13.52,-915
13.53,-865
13.54,-819
13.55,-770
13.56,-713
13.57,-653
13.58,-590
13.59,-521
13.60,-449
13.61,-375
13.62,-293
13.63,-210
13.64,-123
13.65,-30
13.66,72
13.67,181
13.68,293
13.69,405
13.70,515
13.71,620
13.72,716
13.73,804
13.74,883
13.75,953
13.76,1008
13.77,1055
13.78,1102
13.79,1144
13.80,1176
13.81,1205
13.82,1236
13.83,1269
13.84,1299
13.85,1322
13.86,1339
13.87,1353
13.88,1369
13.89,1390
13.90,1421
13.91,1465
13.92,1512
13.93,1561
13.94,1615
13.95,1673
13.96,1726
13.97,1776
13.98,1832
13.99,1886
14.00,1939
14.01,1998
14.02,2058
14.03,2118
14.04,2184
14.05,2252
14.06,2313
14.07,2374
14.08,2425
14.09,2465
14.10,2501
14.11,2542
14.12,2585
14.13,2624
14.14,2660
14.15,2698
14.16,2737
14.17,2773
14.18,2805
14.19,2839
14.20,2880
14.21,2931
14.22,2983
14.23,3034
14.24,3088
14.25,3140
14.26,3182
14.27,3220
14.28,3261
14.29,3302
14.30,3338
14.31,3370
14.32,3408
14.33,3457
14.34,3509
14.35,3559
14.36,3612
14.37,3670
14.38,3726
14.39,3781
14.40,3842
14.41,3901
14.42,3964
14.43,4039
14.44,4117
14.45,4200
14.46,4283
14.47,4364
14.48,4441
14.49,4508
14.50,4567
14.51,4613
14.52,4643
14.53,4665
14.54,4684
14.55,4704
14.56,4724
14.57,4740
14.58,4748
14.59,4748
14.60,4748
14.61,4748
14.62,4746
14.63,4743
14.64,4743
14.65,4743
14.66,4743
14.67,4741
14.68,4736
14.69,4726
14.70,4715
14.71,4702
14.72,4687
14.73,4670
14.74,4646
14.75,4613
14.76,4565
14.77,4507
14.78,4447
14.79,4382
14.80,4313
14.81,4246
14.82,4171
14.83,4095
14.84,4017
14.85,3935
14.86,3852
14.87,3762
14.88,3673
14.89,3579
14.90,3486
14.91,3386
14.92,3285
14.93,3186
14.94,3084
14.95,2982
14.96,2877
14.97,2775
14.98,2675
14.99,2580
15.00,2495
15.01,2423
15.02,2357
15.03,2301
15.04,2258
15.05,2219
15.06,2181
15.07,2148
15.08,2124
15.09,2104
15.10,2084
15.11,2060
15.12,2028
15.13,1992
15.14,1957
15.15,1927
15.16,1900
15.17,1870
15.18,1835
15.19,1801
15.20,1771
15.21,1749
15.22,1728
15.23,1707
15.24,1681
15.25,1651
15.26,1621
15.27,1599
15.28,1589
15.29,1588
15.30,1588
15.31,1588
15.32,1588
15.33,1588
15.34,1588
15.35,1588
15.36,1588
15.37,1588
15.38,1588
15.39,1588
15.40,1588
15.41,1588
15.42,1588
15.43,1588
15.44,1588
15.45,1588
15.46,1588
15.47,1588
15.48,1588
15.49,1588
15.50,1588
15.51,1588
15.52,1588
15.53,1588
15.54,1588
15.55,1588
15.56,1588
15.57,1588
15.58,1588
15.59,1588
15.60,1588
15.61,1587
15.62,1583
15.63,1574
15.64,1558
15.65,1532
15.66,1493
15.67,1438
15.68,1377
15.69,1307
15.70,1222
15.71,1133
15.72,1036
15.73,940
15.74,844
15.75,759
15.76,688
15.77,634
15.78,588
15.79,540
15.80,493
15.81,450
15.82,407
15.83,361
15.84,322
15.85,291
15.86,265
15.87,239
15.88,210
15.89,177
15.90,148
15.91,127
15.92,114
15.93,107
15.94,105
15.95,105
15.96,105
15.97,105
15.98,105
15.99,105
16.00,105
16.01,105
16.02,105
16.03,105
16.04,105
16.05,105
16.06,105
16.07,104
16.08,100
16.09,93
16.10,80
16.11,60
16.12,31
16.13,-5
16.14,-40
16.15,-74
16.16,-108
16.17,-151
16.18,-201
16.19,-251
16.20,-302
16.21,-361
16.22,-419
16.23,-477
16.24,-540
16.25,-607
16.26,-673
16.27,-742
16.28,-803
16.29,-858
16.30,-913
16.31,-961
16.32,-997
16.33,-1027
16.34,-1052
16.35,-1071
16.36,-1078
16.37,-1075
16.38,-1071
16.39,-1071
16.40,-1071
16.41,-1071
16.42,-1071
16.43,-1071
16.44,-1069
16.45,-1065
16.46,-1058
16.47,-1048
16.48,-1035
16.49,-1018
16.50,-998
16.51,-974
16.52,-944
16.53,-909
16.54,-877
16.55,-849
16.56,-825
16.57,-801
16.58,-773
16.59,-736
16.60,-694
16.61,-655
16.62,-620
16.63,-582
16.64,-540
16.65,-500
16.66,-465
16.67,-432
16.68,-392
16.69,-346
16.70,-299
16.71,-255
16.72,-208
16.73,-155
16.74,-105
16.75,-55
16.76,1
16.77,59
16.78,116
16.79,176
16.80,237
16.81,295
16.82,355
16.83,421
16.84,484
16.85,549
16.86,610
16.87,664
16.88,718
16.89,771
16.90,816
16.91,856
16.92,899
16.93,942
16.94,978
16.95,1010
16.96,1043
16.97,1082
16.98,1124
16.99,1162
17.00,1197
17.01,1237
17.02,1283
17.03,1330
17.04,1374
17.05,1423
17.06,1483
17.07,1545
17.08,1611
17.09,1682
17.10,1750
17.11,1825
17.12,1905
17.13,1989
17.14,2078
17.15,2167
17.16,2264
17.17,2362
17.18,2461
17.19,2559
17.20,2653
17.21,2745
17.22,2831
17.23,2915
17.24,2996
17.25,3072
17.26,3145
17.27,3209
17.28,3270
17.29,3328
17.30,3379
17.31,3429
17.32,3480
17.33,3526
17.34,3569
17.35,3615
17.36,3669
17.37,3723
17.38,3778
17.39,3838
17.40,3900
17.41,3963
17.42,4036
17.43,4113
17.44,4195
17.45,4279
17.46,4363
17.47,4449
17.48,4528
17.49,4599
17.50,4655
17.51,4701
17.52,4744
17.53,4780
17.54,4806
17.55,4828
17.56,4850
17.57,4873
17.58,4897
17.59,4915
17.60,4925
17.61,4926
17.62,4925
17.63,4925
17.64,4925
17.65,4925
17.66,4925
17.67,4925
17.68,4925
17.69,4925
17.70,4925
17.71,4925
17.72,4925
17.73,4925
17.74,4925
17.75,4925
17.76,4925
17.77,4925
17.78,4925
17.79,4924
17.80,4924
17.81,4922
17.82,4920
17.83,4920
17.84,4920
17.85,4920
17.86,4919
17.87,4916
17.88,4910
17.89,4903
17.90,4897
17.91,4891
17.92,4886
17.93,4882
17.94,4880
17.95,4879
17.96,4879
17.97,4879
17.98,4879
17.99,4879
18.00,4879
18.01,4879
18.02,4879
18.03,4879
18.04,4879
18.05,4879
18.06,4879
18.07,4879
18.08,4879
18.09,4879
18.10,4879
18.11,4879
18.12,4879
18.13,4879
18.14,4879
18.15,4879
18.16,4879
18.17,4879
18.18,4879
18.19,4879
18.20,4877
18.21,4874
18.22,4869
18.23,4863
18.24,4855
18.25,4845
18.26,4833
18.27,4816
18.28,4791
18.29,4757
18.30,4715
18.31,4674
18.32,4633
18.33,4584
18.34,4527
18.35,4473
18.36,4421
18.37,4367
18.38,4318
18.39,4276
18.40,4235
18.41,4190
18.42,4147
18.43,4112
18.44,4084
18.45,4059
18.46,4034
18.47,4012
18.48,3995
18.49,3987
18.50,3986
18.51,3986
18.52,3986
18.53,3986
18.54,3986
18.55,3986
18.56,3986
18.57,3986
18.58,3986
18.59,3986
18.60,3986
18.61,3987
18.62,3987
18.63,3987
18.64,3987
18.65,3987
18.66,3987
18.67,3987
18.68,3987
18.69,3987
18.70,3987
18.71,3987
18.72,3987
18.73,3987
18.74,3987
18.75,3987
18.76,3986
18.77,3984
18.78,3978
18.79,3967
18.80,3951
18.81,3928
18.82,3898
18.83,3855
18.84,3799
18.85,3736
18.86,3667
18.87,3591
18.88,3514
18.89,3426
18.90,3335
18.91,3235
18.92,3132
18.93,3020
18.94,2898
18.95,2772
18.96,2641
18.97,2509
18.98,2383
18.99,2258
19.00,2136
19.01,2021
19.02,1914
19.03,1818
19.04,1733
19.05,1651
19.06,1566
19.07,1481
19.08,1391
19.09,1300
19.10,1201
19.11,1099
19.12,995
19.13,884
19.14,771
19.15,655
19.16,538
19.17,422
19.18,306
19.19,198
19.20,92
19.21,-9
19.22,-105
19.23,-203
19.24,-299
19.25,-398
19.26,-493
19.27,-592
19.28,-690
19.29,-786
19.30,-881
19.31,-976
19.32,-1071
19.33,-1164
19.34,-1253
19.35,-1342
19.36,-1427
19.37,-1506
19.38,-1577
19.39,-1646
19.40,-1711
19.41,-1771
19.42,-1829
19.43,-1879
19.44,-1922
19.45,-1965
19.46,-2010
19.47,-2051
19.48,-2084
19.49,-2115
19.50,-2148
19.51,-2182
19.52,-2211
19.53,-2230
19.54,-2243
19.55,-2250
19.56,-2255
19.57,-2259
19.58,-2264
19.59,-2269
19.60,-2275
19.61,-2281
19.62,-2287
19.63,-2292
19.64,-2293
19.65,-2293
19.66,-2292
19.67,-2292
19.68,-2291
19.69,-2289
19.70,-2287
19.71,-2287
19.72,-2287
19.73,-2287
19.74,-2286
19.75,-2282
19.76,-2274
19.77,-2259
19.78,-2235
19.79,-2199
19.80,-2152
19.81,-2105
19.82,-2057
19.83,-2002
19.84,-1946
19.85,-1893
19.86,-1835
19.87,-1771
19.88,-1708
19.89,-1640
19.90,-1573
19.91,-1513
19.92,-1449
19.93,-1386
19.94,-1329
19.95,-1270
19.96,-1217
19.97,-1169
19.98,-1118
19.99,-1061
20.00,-1005
20.01,-950
20.02,-890
20.03,-834
20.04,-780
20.05,-720
20.06,-660
20.07,-600
20.08,-534
20.09,-469
20.10,-406
20.11,-337
20.12,-267
20.13,-195
20.14,-121
20.15,-53
20.16,22
20.17,97
20.18,174
20.19,250
20.20,321
20.21,396
20.22,465
20.23,531
20.24,592
20.25,642
20.26,687
20.27,736
20.28,784
20.29,825
20.30,867
20.31,912
20.32,956
20.33,993
20.34,1028
20.35,1066
20.36,1112
20.37,1157
20.38,1200
20.39,1246
20.40,1297
20.41,1344
20.42,1387
20.43,1436
20.44,1491
20.45,1546
20.46,1602
20.47,1663
20.48,1718
20.49,1772
20.50,1832
20.51,1894
20.52,1957
20.53,2027
20.54,2095
20.55,2169
20.56,2248
20.57,2327
20.58,2407
20.59,2476
20.60,2544
20.61,2611
20.62,2671
20.63,2732
20.64,2788
20.65,2839
20.66,2891
20.67,2947
20.68,2998
20.69,3046
20.70,3095
20.71,3141
20.72,3180
20.73,3215
20.74,3255
20.75,3299
20.76,3339
20.77,3374
20.78,3409
20.79,3447
20.80,3485
20.81,3516
20.82,3541
20.83,3565
20.84,3591
20.85,3623
20.86,3662
20.87,3700
20.88,3733
20.89,3768
20.90,3809
20.91,3851
20.92,3887
20.93,3919
20.94,3952
20.95,3992
20.96,4037
20.97,4078
20.98,4117
20.99,4160
21.00,4204
21.01,4243
21.02,4278
21.03,4314
21.04,4359
21.05,4408
21.06,4453
21.07,4498
21.08,4545
21.09,4588
21.10,4622
21.11,4648
21.12,4672
21.13,4698
21.14,4726
21.15,4753
21.16,4771
21.17,4780
21.18,4779
21.19,4779
21.20,4779
21.21,4779
21.22,4779
21.23,4779
21.24,4779
21.25,4779
21.26,4779
21.27,4777
21.28,4775
21.29,4774
21.30,4774
21.31,4774
21.32,4774
21.33,4774
21.34,4774
21.35,4774
21.36,4774
21.37,4772
21.38,4766
21.39,4758
21.40,4748
21.41,4738
21.42,4729
21.43,4723
21.44,4720
21.45,4720
21.46,4720
21.47,4720
21.48,4720
21.49,4720
21.50,4720
21.51,4720
21.52,4719
21.53,4715
21.54,4711
21.55,4706
21.56,4701
21.57,4698
21.58,4695
21.59,4694
21.60,4692
21.61,4691
21.62,4689
21.63,4687
21.64,4684
21.65,4680
21.66,4675
21.67,4669
21.68,4662
21.69,4652
21.70,4637
21.71,4616
21.72,4586
21.73,4548
21.74,4507
21.75,4471
21.76,4438
21.77,4402
21.78,4365
21.79,4334
21.80,4312
21.81,4298
21.82,4290
21.83,4287
21.84,4287
21.85,4287
21.86,4287
21.87,4287
21.88,4287
21.89,4287
21.90,4287
21.91,4287
21.92,4287
21.93,4287
21.94,4286
21.95,4281
21.96,4271
21.97,4254
21.98,4227
21.99,4193
22.00,4156
22.01,4125
22.02,4100
22.03,4075
22.04,4046
22.05,4012
22.06,3976
22.07,3944
22.08,3912
22.09,3876
22.10,3832
22.11,3784
22.12,3740
22.13,3695
22.14,3644
22.15,3593
22.16,3544
22.17,3490
22.18,3427
22.19,3366
22.20,3302
22.21,3234
22.22,3170
22.23,3098
22.24,3021
22.25,2941
22.26,2858
22.27,2777
22.28,2690
22.29,2604
22.30,2518
22.31,2439
22.32,2362
22.33,2287
22.34,2217
22.35,2149
22.36,2091
22.37,2033
22.38,1972
22.39,1914
22.40,1856
22.41,1796
22.42,1738
22.43,1681
22.44,1615
22.45,1551
22.46,1486
22.47,1417
22.48,1352
22.49,1283
22.50,1209
22.51,1138
22.52,1063
22.53,990
22.54,912
22.55,828
22.56,742
22.57,651
22.58,556
22.59,455
22.60,352
22.61,254
22.62,153
22.63,55
22.64,-41
22.65,-131
22.66,-218
22.67,-299
22.68,-375
22.69,-441
22.70,-502
22.71,-566
22.72,-629
22.73,-693
22.74,-761
22.75,-826
22.76,-895
22.77,-967
22.78,-1037
22.79,-1109
22.80,-1173
22.81,-1238
22.82,-1306
22.83,-1369
22.84,-1429
22.85,-1486
22.86,-1534
22.87,-1578
22.88,-1625
22.89,-1673
22.90,-1714
22.91,-1754
22.92,-1797
22.93,-1842
22.94,-1881
22.95,-1916
22.96,-1955
22.97,-2001
22.98,-2048
22.99,-2090
23.00,-2131
23.01,-2176
23.02,-2217
23.03,-2251
23.04,-2281
23.05,-2313
23.06,-2351
23.07,-2391
23.08,-2425
23.09,-2451
23.10,-2473
23.11,-2496
23.12,-2519
23.13,-2538
23.14,-2550
23.15,-2555
23.16,-2555
23.17,-2555
23.18,-2555
23.19,-2555
23.20,-2554
23.21,-2553
23.22,-2550
23.23,-2548
23.24,-2547
23.25,-2545
23.26,-2541
23.27,-2535
23.28,-2528
23.29,-2521
23.30,-2515
23.31,-2509
23.32,-2503
23.33,-2498
23.34,-2492
23.35,-2484
23.36,-2473
23.37,-2460
23.38,-2440
23.39,-2412
23.40,-2373
23.41,-2330
23.42,-2287
23.43,-2244
23.44,-2192
23.45,-2134
23.46,-2076
23.47,-2017
23.48,-1956
23.49,-1899
23.50,-1838
23.51,-1770
23.52,-1703
23.53,-1631
23.54,-1561
23.55,-1495
23.56,-1426
23.57,-1365
23.58,-1307
23.59,-1250
23.60,-1201
23.61,-1158
23.62,-1114
23.63,-1065
23.64,-1019
23.65,-977
23.66,-931
23.67,-885
23.68,-843
23.69,-805
23.70,-764
23.71,-716
23.72,-667
23.73,-620
23.74,-568
23.75,-513
23.76,-463
23.77,-415
23.78,-362
23.79,-307
23.80,-257
23.81,-207
23.82,-154
23.83,-109
23.84,-67
23.85,-22
23.86,30
23.87,83
23.88,137
23.89,196
23.90,255
23.91,313
23.92,378
23.93,446
23.94,514
23.95,583
23.96,647
23.97,710
23.98,774
23.99,832
24.00,887
24.01,941
24.02,988
24.03,1030
24.04,1076
24.05,1124
24.06,1167
24.07,1208
24.08,1253
24.09,1298
24.10,1337
24.11,1372
24.12,1411
24.13,1458
24.14,1509
24.15,1559
24.16,1613
24.17,1670
24.18,1724
24.19,1776
24.20,1835
24.21,1893
24.22,1950
24.23,2010
24.24,2067
24.25,2120
24.26,2176
24.27,2236
24.28,2292
24.29,2348
24.30,2405
24.31,2455
24.32,2503
24.33,2556
24.34,2608
24.35,2655
24.36,2703
24.37,2751
24.38,2792
24.39,2826
24.40,2859
24.41,2897
24.42,2936
24.43,2970
24.44,2997
24.45,3019
24.46,3043
24.47,3069
24.48,3096
24.49,3118
24.50,3133
24.51,3139
24.52,3139
24.53,3139
24.54,3139
24.55,3139
24.56,3139
24.57,3139
24.58,3139
24.59,3139
24.60,3139
24.61,3139
24.62,3139
24.63,3139
24.64,3139
24.65,3139
24.66,3139
24.67,3139
24.68,3139
24.69,3139
24.70,3139
24.71,3139
24.72,3139
24.73,3139
24.74,3139
24.75,3139
24.76,3139
24.77,3139
24.78,3139
24.79,3139
24.80,3139
24.81,3139
24.82,3139
24.83,3139
24.84,3139
24.85,3139
24.86,3139
24.87,3139
24.88,3139
24.89,3139
24.90,3139
24.91,3138
24.92,3138
24.93,3138
24.94,3137
24.95,3137
24.96,3136
24.97,3135
24.98,3135
24.99,3135
25.00,3135
25.01,3135
25.02,3135
25.03,3135
25.04,3134
25.05,3134
25.06,3134
25.07,3134
25.08,3134
25.09,3134
25.10,3134
25.11,3134
25.12,3134
25.13,3134
25.14,3134
25.15,3134
25.16,3134
25.17,3134
25.18,3133
25.19,3130
25.20,3123
25.21,3114
25.22,3103
25.23,3092
25.24,3084
25.25,3077
25.26,3073
25.27,3071
25.28,3070
25.29,3070
25.30,3070
25.31,3070
25.32,3070
25.33,3069
25.34,3068
25.35,3065
25.36,3059
25.37,3053
25.38,3046
25.39,3038
25.40,3029
25.41,3019
25.42,3007
25.43,2989
25.44,2965
25.45,2932
25.46,2894
25.47,2859
25.48,2826
25.49,2791
25.50,2749
25.51,2701
25.52,2658
25.53,2617
25.54,2575
25.55,2533
25.56,2498
25.57,2473
25.58,2451
25.59,2430
25.60,2406
25.61,2377
25.62,2349
25.63,2327
25.64,2316
25.65,2313
25.66,2314
25.67,2314
25.68,2314
25.69,2314
25.70,2314
25.71,2314
25.72,2314
25.73,2314
25.74,2314
25.75,2314
25.76,2314
25.77,2314
25.78,2314
25.79,2314
25.80,2314
25.81,2314
25.82,2313
25.83,2313
25.84,2313
25.85,2313
25.86,2313
25.87,2313
25.88,2313
25.89,2313
25.90,2313
25.91,2313
25.92,2313
25.93,2313
25.94,2313
25.95,2311
25.96,2307
25.97,2302
25.98,2294
25.99,2283
26.00,2267
26.01,2245
26.02,2215
26.03,2179
26.04,2146
26.05,2116
26.06,2086
26.07,2051
26.08,2007
26.09,1959
26.10,1914
26.11,1869
26.12,1818
26.13,1770
26.14,1726
26.15,1676
26.16,1619
26.17,1562
26.18,1506
26.19,1447
26.20,1392
26.21,1341
26.22,1287
26.23,1229
26.24,1177
26.25,1122
26.26,1065
26.27,1011
26.28,954
26.29,891
26.30,828
26.31,766
26.32,703
26.33,646
26.34,591
26.35,532
26.36,476
26.37,425
26.38,375
26.39,330
26.40,296
26.41,271
26.42,248
26.43,223
26.44,193
26.45,162
26.46,135
26.47,113
26.48,94
26.49,73
26.50,46
26.51,14
26.52,-20
26.53,-51
26.54,-82
26.55,-118
26.56,-165
26.57,-218
26.58,-270
26.59,-325
26.60,-385
26.61,-442
26.62,-502
26.63,-570
26.64,-640
26.65,-715
26.66,-794
26.67,-873
26.68,-957
26.69,-1040
26.70,-1126
26.71,-1208
26.72,-1292
26.73,-1372
26.74,-1449
26.75,-1521
26.76,-1583
26.77,-1643
26.78,-1698
26.79,-1742
26.80,-1784
26.81,-1826
26.82,-1861
26.83,-1890
26.84,-1919
26.85,-1954
26.86,-1998
26.87,-2044
26.88,-2089
26.89,-2135
26.90,-2186
26.91,-2236
26.92,-2281
26.93,-2329
26.94,-2382
26.95,-2431
26.96,-2472
26.97,-2514
26.98,-2556
26.99,-2593
27.00,-2624
27.01,-2654
27.02,-2688
27.03,-2726
27.04,-2761
27.05,-2784
27.06,-2794
27.07,-2795
27.08,-2795
27.09,-2795
27.10,-2795
27.11,-2795
27.12,-2794
27.13,-2791
27.14,-2789
27.15,-2788
27.16,-2787
27.17,-2784
27.18,-2778
27.19,-2768
27.20,-2755
27.21,-2741
27.22,-2726
27.23,-2713
27.24,-2704
27.25,-2697
27.26,-2692
27.27,-2688
27.28,-2683
27.29,-2677
27.30,-2669
27.31,-2657
27.32,-2639
27.33,-2611
27.34,-2569
27.35,-2516
27.36,-2457
27.37,-2395
27.38,-2326
27.39,-2259
27.40,-2190
27.41,-2116
27.42,-2041
27.43,-1963
27.44,-1888
27.45,-1811
27.46,-1731
27.47,-1651
27.48,-1574
27.49,-1506
27.50,-1435
27.51,-1369
27.52,-1305
27.53,-1240
27.54,-1180
27.55,-1119
27.56,-1052
27.57,-986
27.58,-920
27.59,-857
27.60,-801
27.61,-745
27.62,-688
27.63,-637
27.64,-590
27.65,-541
27.66,-499
27.67,-467
27.68,-444
27.69,-423
27.70,-399
27.71,-370
27.72,-337
27.73,-306
27.74,-277
27.75,-247
27.76,-209
27.77,-167
27.78,-127
27.79,-95
27.80,-64
27.81,-27
27.82,17
27.83,64
27.84,110
27.85,163
27.86,221
27.87,278
27.88,335
27.89,400
27.90,460
27.91,517
27.92,572
27.93,617
27.94,653
27.95,690
27.96,730
27.97,768
27.98,799
27.99,821
28.00,841
28.01,862
28.02,884
28.03,906
28.04,923
28.05,933
28.06,935
28.07,935
28.08,935
28.09,935
28.10,935
28.11,935
28.12,935
28.13,935
28.14,935
28.15,935
28.16,935
28.17,935
28.18,935
28.19,935
28.20,935
28.21,934
28.22,934
28.23,934
28.24,934
28.25,934
28.26,934
28.27,934
28.28,934
28.29,934
28.30,934
28.31,934
28.32,934
28.33,934
28.34,934
28.35,934
28.36,934
28.37,934
28.38,934
28.39,934
28.40,934
28.41,934
28.42,934
28.43,934
28.44,934
28.45,934
28.46,934
28.47,933
28.48,932
28.49,932
28.50,932
28.51,932
28.52,932
28.53,932
28.54,932
28.55,932
28.56,932
28.57,932
28.58,932
28.59,932
28.60,932
28.61,932
28.62,932
28.63,932
28.64,932
28.65,932
28.66,932
28.67,932
28.68,932
28.69,932
28.70,932
28.71,932
28.72,932
28.73,932
28.74,932
28.75,932
28.76,932
28.77,932
28.78,932
28.79,932
28.80,932
28.81,932
28.82,932
28.83,932
28.84,932
28.85,932
28.86,932
28.87,932
28.88,932
28.89,931
28.90,930
28.91,929
28.92,929
28.93,929
28.94,929
28.95,929
28.96,929
28.97,929
28.98,929
28.99,929
29.00,929
29.01,929
29.02,927
29.03,923
29.04,917
29.05,909
29.06,901
29.07,894
29.08,889
29.09,886
29.10,885
29.11,885
29.12,885
29.13,885
29.14,885
29.15,885
29.16,885
29.17,885
29.18,885
29.19,885
29.20,885
29.21,885
29.22,884
29.23,882
29.24,878
29.25,874
29.26,870
29.27,866
29.28,863
29.29,861
29.30,861
29.31,861
29.32,861
29.33,861
29.34,861
29.35,861
29.36,861
29.37,861
29.38,861
29.39,861
29.40,861
29.41,861
29.42,861
29.43,861
29.44,861
29.45,861
29.46,861
29.47,861
29.48,861
29.49,861
29.50,861
29.51,861
29.52,861
29.53,861
29.54,861
29.55,861
29.56,861
29.57,861
29.58,861
29.59,861
29.60,861
29.61,861
29.62,861
29.63,861
29.64,861
29.65,861
29.66,861
29.67,861
29.68,861
29.69,861
29.70,861
29.71,861
29.72,861
29.73,861
29.74,861
29.75,861
29.76,861
29.77,861
29.78,861
29.79,861
29.80,861
29.81,861
29.82,861
29.83,861
29.84,861
29.85,860
29.86,860
29.87,859
29.88,855
29.89,846
29.90,831
29.91,807
29.92,773
29.93,727
29.94,680
29.95,636
29.96,589
29.97,536
29.98,484
29.99,438
30.00,389